• rOpenSci: mregions
…
or don’t (but then mr_names_search() call takes longer)

mr_names_search("iho", q = "Sea")
#> # A tibble: 73 x 6
#>                layer    name_first name_second     id
#>                <chr>         <chr>       <chr>  <chr>
#>  1 MarineRegions:iho MarineRegions         iho  iho.3
#>  2 MarineRegions:iho MarineRegions         iho  iho.4
#>  3 MarineRegions:iho MarineRegions         iho  iho.6
#>  4 MarineRegions:iho MarineRegions         iho  iho.7
#>  5 MarineRegions:iho MarineRegions         iho  iho.8
#>  6 MarineRegions:iho MarineRegions         iho iho.10
#>  7 MarineRegions:iho MarineRegions         iho iho.15
#>  8 MarineRegions:iho MarineRegions         iho iho.16
#>  9 MarineRegions:iho MarineRegions         iho iho.17
#> 10 MarineRegions:iho MarineRegions         iho iho.27
#> # ... with 63 more rows, and 2 more variables: name <chr>, mrgid <chr>
…
